{
  "manifest_version": 2,
  "name": "Scan Website",
  "description": "VirusTotal URL Scanner - Stay protected.",
  "version": "1.0.8",
  "icons": {
    "512": "icons/512.png",
    "128": "icons/128.png",
    "64": "icons/64.png",
    "32": "icons/32.png"
  },
  "browser_action": {
    "default_title": "Scan Website",
    "default_popup": "index.html"
  },
  "background": {
    "scripts": [
      "background.js"
    ]
  },
  "permissions": [
    "tabs",
    "contextMenus",
    "notifications",
    "storage",
    "https://*.virustotal.com/"
  ]
}